#Tissue	Number of RNASeq and Genotyped Samples	Original Cell Type Name
Adipose subcutaneous	385	Adipose Subcutaneous
Adipose visceral omentum	313	Adipose Visceral Omentum
Adrenal gland	175	Adrenal Gland
Aorta	267	Artery Aorta
Coronary artery	152	Artery Coronary
Tibial artery	388	Artery Tibial
Amygdala	88	Brain Amygdala
Anterior cingulate cortex BA24	109	Brain Anterior cingulate cortex BA24
Caudate basal ganglia	144	Brain Caudate basal ganglia
Cerebellar hemisphere	125	Brain Cerebellar Hemisphere
Cerebellum	154	Brain Cerebellum
Cortex	136	Brain Cortex
Frontal cortex BA9	118	Brain Frontal Cortex BA9
Hippocampus	111	Brain Hippocampus
Hypothalamus	108	Brain Hypothalamus
Nucleus accumbens basal ganglia	130	Brain Nucleus accumbens basal ganglia
Putamen basal ganglia	111	Brain Putamen basal ganglia
Spinal cord cervical c-1	83	Brain Spinal cord cervical c-1
Substantia nigra	80	Brain Substantia nigra
Breast mammary tissue	251	Breast Mammary Tissue
EBV-transformed lymphocytes	117	Cells EBV-transformed lymphocytes
Fibroblast	300	Cells Transformed fibroblasts
Sigmoid colon	203	Colon Sigmoid
Transverse colon	246	Colon Transverse
Esophagus gastroesophageal junction	213	Esophagus Gastroesophageal Junction
Esophagus mucosa	358	Esophagus Mucosa
Esophagus muscularis	335	Esophagus Muscularis
Atrial appendage	264	Heart Atrial Appendage
Left ventricle	272	Heart Left Ventricle
Liver	153	Liver
Lung	383	Lung
Minor Salivary Gland	85	Minor Salivary Gland
Skeletal muscle	491	Muscle Skeletal
Nerve tibial	361	Nerve Tibial
Ovary	122	Ovary
Pancreas	220	Pancreas
Pituitary gland	157	Pituitary
Prostate	132	Prostate
Skin not sun exposed suprapubic	335	Skin Not Sun Exposed Suprapubic
Skin sun exposed lower leg	414	Skin Sun Exposed Lower leg
Small intestine terminal ileum	122	Small Intestine Terminal Ileum
Spleen	146	Spleen
Stomach	237	Stomach
Testis	225	Testis
Thyroid	399	Thyroid
Uterus	101	Uterus
Vagina	106	Vagina
Whole blood	369	Whole Blood
